gcd.vcd
$date
	Wed Oct 09 18:17:21 2024
$end
$version
	Icarus Verilog
$end
$timescale
	1s
$end
$scope module gcd_test $end
$var wire 1 ! sel_in $end
$var wire 1 " sel2 $end
$var wire 1 # sel1 $end
$var wire 1 $ lt $end
$var wire 1 % ldb $end
$var wire 1 & lda $end
$var wire 1 ' gt $end
$var wire 1 ( eq $end
$var wire 1 ) done $end
$var reg 1 * clk $end
$var reg 16 + data_in [15:0] $end
$var reg 1 , start $end
$scope module CON $end
$var wire 1 * clk $end
$var wire 1 , start $end
$var wire 1 $ lt $end
$var wire 1 ' gt $end
$var wire 1 ( eq $end
$var parameter 3 - s0 $end
$var parameter 3 . s1 $end
$var parameter 3 / s2 $end
$var parameter 3 0 s3 $end
$var parameter 3 1 s4 $end
$var parameter 3 2 s5 $end
$var reg 1 ) done $end
$var reg 1 & lda $end
$var reg 1 % ldb $end
$var reg 1 # sel1 $end
$var reg 1 " sel2 $end
$var reg 1 ! sel_in $end
$var reg 3 3 state [2:0] $end
$upscope $end
$scope module DP $end
$var wire 1 * clk $end
$var wire 16 4 data_in [15:0] $end
$var wire 1 & lda $end
$var wire 1 % ldb $end
$var wire 1 # sel1 $end
$var wire 1 " sel2 $end
$var wire 1 ! sel_in $end
$var wire 16 5 y [15:0] $end
$var wire 16 6 x [15:0] $end
$var wire 16 7 subout [15:0] $end
$var wire 1 $ lt $end
$var wire 1 ' gt $end
$var wire 1 ( eq $end
$var wire 16 8 bus [15:0] $end
$var wire 16 9 bout [15:0] $end
$var wire 16 : aout [15:0] $end
$scope module A $end
$var wire 1 * clk $end
$var wire 1 & load $end
$var wire 16 ; din [15:0] $end
$var reg 16 < dout [15:0] $end
$upscope $end
$scope module B $end
$var wire 1 * clk $end
$var wire 1 % load $end
$var wire 16 = din [15:0] $end
$var reg 16 > dout [15:0] $end
$upscope $end
$scope module COMP $end
$var wire 16 ? din1 [15:0] $end
$var wire 16 @ din2 [15:0] $end
$var wire 1 $ lt $end
$var wire 1 ' gt $end
$var wire 1 ( eq $end
$upscope $end
$scope module MUX_in1 $end
$var wire 16 A in0 [15:0] $end
$var wire 16 B in1 [15:0] $end
$var wire 1 # select $end
$var wire 16 C dout [15:0] $end
$upscope $end
$scope module MUX_in2 $end
$var wire 16 D in0 [15:0] $end
$var wire 16 E in1 [15:0] $end
$var wire 1 " select $end
$var wire 16 F dout [15:0] $end
$upscope $end
$scope module MUX_load $end
$var wire 16 G in1 [15:0] $end
$var wire 1 ! select $end
$var wire 16 H in0 [15:0] $end
$var wire 16 I dout [15:0] $end
$upscope $end
$scope module SB $end
$var wire 16 J din1 [15:0] $end
$var wire 16 K din2 [15:0] $end
$var wire 16 L dout [15:0] $end
$upscope $end
$upscope $end
$upscope $end
$enddefinitions $end
$comment Show the parameter values. $end
$dumpall
b101 2
b100 1
b11 0
b10 /
b1 .
b0 -
$end
#0
$dumpvars
bx L
bx K
bx J
bx I
bx H
bx G
bx F
bx E
bx D
bx C
bx B
bx A
bx @
bx ?
bx >
bx =
bx <
bx ;
bx :
bx 9
bx 8
bx 7
bx 6
bx 5
bx 4
bx 3
x,
bx +
0*
x)
x(
x'
x&
x%
x$
x#
x"
x!
$end
#3
1,
#5
0)
0%
1&
1!
b0 3
1*
#10
b1001110 8
b1001110 ;
b1001110 =
b1001110 I
0*
b1001110 +
b1001110 4
b1001110 G
#15
1%
0&
b1 3
b1001110 :
b1001110 <
b1001110 ?
b1001110 A
b1001110 D
1*
#20
0*
#21
b10001111 8
b10001111 ;
b10001111 =
b10001111 I
b10001111 +
b10001111 4
b10001111 G
#25
b1000001 8
b1000001 ;
b1000001 =
b1000001 I
b1000001 7
b1000001 H
b1000001 L
b10001111 6
b10001111 C
b10001111 J
b1001110 5
b1001110 F
b1001110 K
0!
0"
1#
1$
0'
0(
b10001111 9
b10001111 >
b10001111 @
b10001111 B
b10001111 E
b10 3
1*
#30
0*
#35
b1111111111110011 8
b1111111111110011 ;
b1111111111110011 =
b1111111111110011 I
b1111111111110011 7
b1111111111110011 H
b1111111111110011 L
b1000001 6
b1000001 C
b1000001 J
0$
1'
b1000001 9
b1000001 >
b1000001 @
b1000001 B
b1000001 E
1*
#37
b1101 8
b1101 ;
b1101 =
b1101 I
b1000001 5
b1000001 F
b1000001 K
b1101 7
b1101 H
b1101 L
b1001110 6
b1001110 C
b1001110 J
1"
0#
b100 3
#39
1&
#40
0*
#45
b0 8
b0 ;
b0 =
b0 I
b1101 6
b1101 C
b1101 J
b0 7
b0 H
b0 L
b1101 5
b1101 F
b1101 K
0'
1(
b1101 :
b1101 <
b1101 ?
b1101 A
b1101 D
b1101 9
b1101 >
b1101 @
b1101 B
b1101 E
1*
#47
0%
0&
0"
1)
b101 3
