mips.vcd
$date
	Sat Feb 01 17:03:52 2025
$end
$version
	Icarus Verilog
$end
$timescale
	1ps
$end
$scope module test_mips32 $end
$scope module mips $end
$var wire 1 ! clk1 $end
$var wire 1 " clk2 $end
$var parameter 6 # ADD $end
$var parameter 6 $ ADDI $end
$var parameter 6 % AND $end
$var parameter 6 & BEQZ $end
$var parameter 6 ' BNEQZ $end
$var parameter 3 ( BRANCH $end
$var parameter 3 ) HALT $end
$var parameter 6 * HLT $end
$var parameter 3 + LOAD $end
$var parameter 6 , LW $end
$var parameter 6 - MUL $end
$var parameter 6 . OR $end
$var parameter 3 / RM_ALU $end
$var parameter 3 0 RR_ALU $end
$var parameter 6 1 SLT $end
$var parameter 6 2 SLTI $end
$var parameter 3 3 STORE $end
$var parameter 6 4 SUB $end
$var parameter 6 5 SUBI $end
$var parameter 6 6 SW $end
$var reg 32 7 EX_MEM_ALUOut [31:0] $end
$var reg 32 8 EX_MEM_B [31:0] $end
$var reg 32 9 EX_MEM_IR [31:0] $end
$var reg 1 : EX_MEM_cond $end
$var reg 3 ; EX_MEM_type [2:0] $end
$var reg 1 < HALTED $end
$var reg 32 = ID_EX_A [31:0] $end
$var reg 32 > ID_EX_B [31:0] $end
$var reg 32 ? ID_EX_IR [31:0] $end
$var reg 32 @ ID_EX_Imm [31:0] $end
$var reg 32 A ID_EX_NPC [31:0] $end
$var reg 3 B ID_EX_type [2:0] $end
$var reg 32 C IF_ID_IR [31:0] $end
$var reg 32 D IF_ID_NPC [31:0] $end
$var reg 32 E MEM_WB_ALUOut [31:0] $end
$var reg 32 F MEM_WB_IR [31:0] $end
$var reg 32 G MEM_WB_LMD [31:0] $end
$var reg 3 H MEM_WB_type [2:0] $end
$var reg 32 I PC [31:0] $end
$var reg 1 J TAKEN_BRANCH $end
$upscope $end
$upscope $end
$enddefinitions $end
$comment Show the parameter values. $end
$dumpall
b1001 6
b1011 5
b1 4
b11 3
b1100 2
b100 1
b0 0
b1 /
b11 .
b101 -
b1000 ,
b10 +
b111111 *
b101 )
b100 (
b1101 '
b1110 &
b10 %
b1010 $
b0 #
$end
#0
$dumpvars
0J
b0 I
bx H
bx G
bx F
bx E
bx D
bx C
bx B
bx A
bx @
bx ?
bx >
bx =
0<
bx ;
x:
bx 9
bx 8
bx 7
0"
0!
$end
#5000
1!
#7000
b1 I
b1 D
b101000000000010000000001111000 C
#10000
0!
#15000
b0 =
1"
#17000
b1 B
b1111000 @
b101000000000010000000001111000 ?
b1 A
b1 >
#20000
0"
#25000
1!
#27000
b1111000 7
b101000000000010000000001111000 9
b1 ;
b10 I
b10 D
b1100011000110001100000000000 C
#30000
0!
#35000
1"
#37000
b1111000 E
b101000000000010000000001111000 F
b1 H
b0 B
b1100000000000 @
b1100011000110001100000000000 ?
b10 A
b11 >
b11 =
#40000
0"
#45000
1!
#47000
b11 I
b11 D
b100000001000100000000000000000 C
b11 7
b1100011000110001100000000000 9
b0 ;
#50000
0!
#55000
1"
#57000
b10 B
b0 @
b100000001000100000000000000000 ?
b11 A
b10 >
b1111000 =
b11 E
b1100011000110001100000000000 F
b0 H
#60000
0"
#65000
1!
#67000
b10 8
b1111000 7
b100000001000100000000000000000 9
b10 ;
b100 I
b100 D
b1100011000110001100000000000 C
#70000
0!
#75000
1"
#77000
b1010101 G
b100000001000100000000000000000 F
b10 H
b0 B
b1100000000000 @
b1100011000110001100000000000 ?
b100 A
b11 >
b11 =
#80000
0"
#85000
1!
#87000
b101 I
b101 D
b101000010000100000000000101101 C
b11 7
b1100011000110001100000000000 9
b0 ;
#90000
0!
#95000
1"
#97000
b1 B
b101101 @
b101000010000100000000000101101 ?
b101 A
b1010101 >
b1010101 =
b1100011000110001100000000000 F
b0 H
#100000
0"
#105000
1!
#107000
b10000010 7
b101000010000100000000000101101 9
b1 ;
b110 I
b110 D
b1100011000110001100000000000 C
#110000
0!
#115000
1"
#117000
b10000010 E
b101000010000100000000000101101 F
b1 H
b0 B
b1100000000000 @
b1100011000110001100000000000 ?
b110 A
b11 >
b11 =
#120000
0"
#125000
1!
#127000
b111 I
b111 D
b100100001000100000000000000001 C
b11 7
b1100011000110001100000000000 9
b0 ;
#130000
0!
#135000
1"
#137000
b11 B
b1 @
b100100001000100000000000000001 ?
b111 A
b10000010 >
b1111000 =
b11 E
b1100011000110001100000000000 F
b0 H
#140000
0"
#145000
1!
#147000
b10000010 8
b1111001 7
b100100001000100000000000000001 9
b11 ;
b1000 I
b1000 D
b11111100000000000000000000000000 C
#150000
0!
#155000
b0 >
b0 =
1"
#157000
b100100001000100000000000000001 F
b11 H
b101 B
b0 @
b11111100000000000000000000000000 ?
b1000 A
#160000
0"
#165000
1!
#167000
b1001 I
b1001 D
bx C
b11111100000000000000000000000000 9
b101 ;
#170000
0!
#175000
1"
#177000
bx @
bx ?
b1001 A
bx >
bx =
b11111100000000000000000000000000 F
b101 H
#180000
0"
#185000
1!
#187000
1<
bx 9
b1010 I
b1010 D
